<svg width="332" height="39" viewBox="0 0 332 39" fill="none" xmlns="http://www.w3.org/2000/svg">
<g opacity="0.899994">
<g opacity="0.899994">
<path opacity="0.899994" d="M0 31.3435L29.9429 -0.000199964L53.8724 31.3435H0Z" fill="#BDC4C6"/>
</g>
</g>
<path d="M42.5562 31.3435L29.9414 -0.000199964L53.872 31.3435H42.5562Z" fill="#577878"/>
<g opacity="0.899994">
<g opacity="0.899994">
<path opacity="0.899994" d="M0 31.3435H42.5566L0 6.66536V31.3435Z" fill="#DD7A1E"/>
</g>
</g>
<g opacity="0.800003">
<g opacity="0.800003">
<path opacity="0.800003" d="M24.3987 31.3435L0 6.66536L42.5566 31.3435H24.3987Z" fill="#915B25"/>
</g>
</g>
<path d="M207.483 20.2306H212.504C213.294 20.2306 213.964 19.9176 214.499 19.2784C215.036 18.6523 215.303 17.7917 215.303 16.7086C215.303 16.161 215.223 15.6647 215.048 15.2219C214.875 14.778 214.661 14.4137 214.392 14.0995C214.124 13.7996 213.804 13.565 213.429 13.4091C213.081 13.2531 212.692 13.1735 212.317 13.1735H207.483V20.2306ZM203.143 31.2133V9.49547H212.598C213.629 9.49547 214.567 9.7049 215.438 10.1216C216.307 10.5393 217.057 11.0869 217.686 11.7784C218.316 12.4699 218.812 13.2389 219.16 14.0995C219.508 14.935 219.695 15.8218 219.695 16.7086C219.695 17.6215 219.521 18.5345 219.187 19.3831C218.866 20.2306 218.383 21.0127 217.767 21.6911C217.151 22.3696 216.401 22.9171 215.571 23.3087C214.714 23.7134 213.777 23.9217 212.746 23.9217H207.469V31.2002L203.143 31.2133ZM187.851 20.2306H193.288C193.69 20.2306 194.051 20.1401 194.4 19.9568C194.748 19.7747 195.042 19.526 195.297 19.2129C195.551 18.8999 195.751 18.5225 195.899 18.0916C196.047 17.6477 196.126 17.1787 196.113 16.7086C196.113 16.2003 196.033 15.7313 195.859 15.2993C195.699 14.8958 195.47 14.5173 195.189 14.178C194.908 13.8661 194.587 13.6174 194.212 13.4483C193.851 13.2782 193.476 13.1866 193.101 13.1866H187.851V20.2306ZM183.513 31.2133V9.49547H193.368C194.4 9.49547 195.337 9.7049 196.207 10.1216C197.077 10.5393 197.827 11.0869 198.457 11.7784C199.086 12.4699 199.582 13.2389 199.929 14.0995C200.278 14.935 200.466 15.8218 200.466 16.7086C200.466 18.1178 200.104 19.3951 199.381 20.5436C198.658 21.6911 197.681 22.5255 196.448 23.0349L201.536 31.2002H196.676L192.123 23.9217H187.851V31.2002L183.513 31.2133ZM164.082 20.3615C164.082 21.2995 164.228 22.2125 164.524 23.0873C164.805 23.9348 165.233 24.7179 165.796 25.4095C166.345 26.0868 167.041 26.6355 167.845 27.026C168.648 27.4306 169.572 27.639 170.59 27.639C171.635 27.639 172.559 27.4306 173.375 27.0129C174.179 26.5951 174.862 26.0345 175.424 25.3429C175.986 24.6394 176.415 23.8442 176.683 23.0087C176.964 22.1481 177.111 21.2614 177.111 20.3615C177.111 19.4224 176.964 18.5083 176.656 17.6346C176.375 16.7871 175.933 16.004 175.371 15.3135C174.821 14.6351 174.125 14.0995 173.335 13.709C172.532 13.3044 171.621 13.1091 170.617 13.1091C169.572 13.1091 168.635 13.3175 167.818 13.7352C167.001 14.1519 166.318 14.7005 165.769 15.391C165.22 16.0705 164.818 16.8526 164.524 17.7132C164.216 18.5738 164.082 19.4605 164.082 20.3615V20.3615ZM170.55 31.3693C168.916 31.3693 167.43 31.0563 166.104 30.4313C164.778 29.8041 163.64 28.9828 162.675 27.952C161.725 26.9223 160.975 25.7214 160.466 24.4169C159.944 23.1265 159.676 21.7435 159.676 20.3473C159.676 18.8999 159.957 17.5179 160.506 16.1872C161.042 14.8827 161.818 13.6959 162.796 12.6652C163.774 11.6355 164.952 10.8131 166.264 10.2394C167.603 9.63945 169.063 9.3395 170.63 9.3395C172.237 9.3395 173.71 9.66454 175.049 10.3048C176.375 10.944 177.513 11.7915 178.45 12.8222C179.388 13.8519 180.124 15.0397 180.647 16.3694C181.169 17.7001 181.437 19.0439 181.437 20.4128C181.437 21.8351 181.169 23.2432 180.62 24.5609C180.097 25.8523 179.321 27.026 178.357 28.0436C177.379 29.0613 176.2 29.8826 174.901 30.4564C173.577 31.0704 172.116 31.3693 170.55 31.3693V31.3693ZM139.602 20.2044C139.602 18.8737 139.844 17.5703 140.339 16.2777C140.834 14.9874 141.544 13.8257 142.495 12.8092C143.432 11.7915 144.584 10.9571 145.951 10.331C147.316 9.70489 148.855 9.37876 150.597 9.37876C152.646 9.37876 154.426 9.82161 155.926 10.6953C157.426 11.5701 158.537 12.7175 159.274 14.1257L155.94 16.3563C155.645 15.7433 155.297 15.235 154.869 14.8172C154.48 14.4137 154.024 14.0875 153.516 13.8257C153.033 13.5781 152.538 13.4091 152.003 13.2913C151.494 13.1866 150.985 13.1222 150.463 13.1222C149.378 13.1222 148.428 13.3305 147.624 13.7614C146.821 14.1911 146.151 14.7387 145.615 15.4302C145.079 16.1087 144.678 16.8907 144.41 17.7524C144.142 18.5868 144.008 19.4605 143.995 20.3353C143.995 21.2875 144.155 22.2125 144.463 23.1004C144.758 23.9479 145.214 24.7441 145.803 25.4476C146.378 26.1261 147.075 26.6616 147.878 27.0652C148.682 27.4699 149.565 27.6782 150.529 27.6782C151.039 27.6782 151.561 27.6139 152.097 27.4961C153.208 27.2485 154.226 26.6867 155.016 25.8916C155.444 25.4476 155.793 24.9394 156.02 24.3787L159.569 26.3617C159.22 27.1699 158.699 27.9007 158.042 28.5137C157.373 29.1387 156.624 29.6743 155.82 30.092C154.99 30.5218 154.105 30.8479 153.168 31.0704C152.231 31.2919 151.307 31.4097 150.41 31.4097C148.815 31.4097 147.356 31.0824 146.043 30.4313C144.744 29.7921 143.593 28.9304 142.629 27.8746C141.678 26.8176 140.915 25.6047 140.406 24.3002C139.883 22.9826 139.616 21.5995 139.602 20.2044V20.2044ZM133.228 9.49547H137.568V31.2133H133.228V9.49547ZM126.734 20.3211C126.734 19.2784 126.587 18.3262 126.292 17.4525C125.998 16.5777 125.569 15.8218 125.006 15.1826C124.444 14.5565 123.748 14.0613 122.917 13.709C122.087 13.3567 121.15 13.1866 120.105 13.1866H116.329V27.5092H120.105C121.177 27.5092 122.114 27.3259 122.944 26.9605C123.775 26.5951 124.457 26.0868 125.02 25.4476C125.569 24.8085 125.998 24.0526 126.292 23.1647C126.587 22.2921 126.734 21.3519 126.734 20.3211V20.3211ZM112.003 31.2133V9.49547H120.105C121.926 9.49547 123.519 9.78234 124.899 10.3561C126.265 10.9309 127.416 11.6999 128.34 12.6783C129.264 13.6567 129.947 14.8041 130.416 16.1218C130.871 17.4394 131.113 18.8344 131.113 20.3353C131.113 21.9911 130.859 23.4788 130.349 24.8216C129.841 26.1654 129.104 27.2997 128.14 28.252C127.176 29.2053 126.024 29.935 124.672 30.4564C123.319 30.9788 121.806 31.2395 120.132 31.2395L112.003 31.2133ZM109.861 27.5092V31.2133H94.3804V9.49547H109.58V13.1996H98.7186V18.4309H108.106V21.8613H98.7186V27.5222L109.861 27.5092ZM79.0881 20.2306H84.5249C84.9269 20.2306 85.2875 20.1401 85.6358 19.9568C85.984 19.7747 86.2785 19.526 86.5338 19.2129C86.788 18.8999 86.9885 18.5225 87.1363 18.0916C87.283 17.6477 87.3636 17.1787 87.3502 16.7086C87.3502 16.2003 87.2696 15.7313 87.096 15.2993C86.9347 14.8958 86.7074 14.5173 86.4263 14.178C86.1442 13.8661 85.8239 13.6174 85.4487 13.4483C85.087 13.2782 84.7119 13.1866 84.3368 13.1866H79.0881V20.2306ZM74.7488 31.2133V9.49547H84.6044C85.6357 9.49547 86.573 9.7049 87.4443 10.1216C88.3144 10.5393 89.0635 11.0869 89.6929 11.7784C90.3222 12.4699 90.8183 13.2389 91.1666 14.0995C91.5148 14.935 91.6884 15.8218 91.7018 16.7086C91.7018 18.1178 91.3412 19.3951 90.6178 20.5436C89.8944 21.6911 88.9168 22.5255 87.685 23.0349L92.7735 31.2002H87.8989L83.3457 23.9217H79.0747V31.2002L74.7488 31.2133ZM53.1094 20.2044C53.1094 18.8737 53.3501 17.5703 53.8451 16.2777C54.3412 14.9874 55.05 13.8257 56.0019 12.8092C56.9526 11.7915 58.0903 10.9571 59.4554 10.331C60.8227 9.70489 62.3625 9.37876 64.1027 9.37876C66.152 9.37876 67.9325 9.82161 69.4185 10.6953C70.919 11.5701 72.0299 12.7175 72.7667 14.1257L69.433 16.3563C69.1374 15.7433 68.7891 15.235 68.3614 14.8172C67.947 14.4006 67.4913 14.0733 67.0086 13.8257C66.526 13.5781 66.031 13.396 65.4957 13.2913C64.9862 13.1866 64.4778 13.1222 63.956 13.1222C62.8709 13.1222 61.9201 13.3305 61.1161 13.7614C60.3266 14.165 59.6435 14.7387 59.1083 15.4302C58.5719 16.1348 58.1575 16.9169 57.9033 17.7524C57.6357 18.5868 57.5013 19.4605 57.5013 20.3353C57.5013 21.2875 57.6615 22.2125 57.9694 23.1004C58.265 23.9479 58.7197 24.7441 59.3087 25.4476C59.8843 26.1261 60.5808 26.6616 61.3849 27.0652C62.1878 27.4699 63.0713 27.6782 64.0355 27.6782C64.5316 27.6782 65.0668 27.6139 65.6032 27.4961C66.152 27.3783 66.6604 27.183 67.1564 26.9092C67.6514 26.6475 68.1072 26.2962 68.5226 25.8785C68.9504 25.4346 69.2987 24.9263 69.526 24.3656L73.0747 26.3475C72.7275 27.1568 72.2046 27.9007 71.5484 28.5006C70.8787 29.1267 70.1284 29.6612 69.3255 30.0779C68.4957 30.5087 67.6111 30.8348 66.6738 31.0563C65.7365 31.2788 64.8126 31.3955 63.9157 31.3955C62.3222 31.3955 60.8753 31.0704 59.5495 30.4171C58.2505 29.7921 57.0993 28.9173 56.1486 27.8615C55.1978 26.8045 54.4476 25.6178 53.9257 24.2871C53.4039 22.9575 53.1094 21.5875 53.1094 20.2044" fill="#577878"/>
<g opacity="0.899994">
<g opacity="0.899994">
<path opacity="0.899994" d="M302.776 29.5432C302.615 29.6218 302.374 29.7254 302.066 29.8563C301.277 30.1955 300.446 30.4431 299.602 30.6132C299.079 30.718 298.544 30.7692 297.969 30.7692C297.365 30.7692 296.804 30.6918 296.254 30.5347C295.705 30.3787 295.236 30.13 294.821 29.8039C294.406 29.4647 294.072 29.0349 293.843 28.5517C293.604 28.0565 293.483 27.4697 293.483 26.8044V11.9735H290.55V9.83452H293.483V2.84283H296.254V9.83452H301.156V11.9735H296.254V26.0343C296.308 26.8044 296.589 27.365 297.084 27.7304C297.58 28.0827 298.169 28.2649 298.812 28.2649C299.602 28.2649 300.299 28.134 300.887 27.8864C301.49 27.6388 301.866 27.4566 302.026 27.3519L302.776 29.5432ZM286.131 9.83452H288.903V30.5347H286.131V9.83452ZM286.131 1.52521H288.903V5.50316H286.131V1.52521ZM273.489 28.5517C274.627 28.5517 275.672 28.3172 276.609 27.8351C277.533 27.365 278.35 26.7258 279.02 25.9438C279.69 25.1475 280.212 24.2476 280.546 23.2823C280.895 22.2919 281.082 21.2612 281.082 20.2042C281.082 19.1211 280.881 18.0391 280.466 17.0215C280.064 16.0169 279.502 15.1301 278.793 14.3611C278.083 13.5911 277.253 12.9781 276.288 12.5352C275.31 12.0782 274.253 11.8568 273.168 11.8568C272.458 11.8568 271.722 11.9997 270.945 12.2734C270.168 12.5472 269.445 12.9257 268.788 13.3827C268.132 13.8397 267.556 14.3862 267.075 15.0134C266.606 15.6384 266.311 16.2917 266.205 16.9822V23.3347C266.525 24.0786 266.942 24.7701 267.45 25.3951C267.945 26.0212 268.521 26.5688 269.163 27.0389C269.793 27.4959 270.489 27.8613 271.226 28.134C271.936 28.4088 272.712 28.5517 273.489 28.5517V28.5517ZM274.266 30.9263C272.471 30.9263 270.891 30.4824 269.512 29.5956C268.132 28.7088 267.035 27.5875 266.191 26.2437V39H263.405V9.83452H265.896V13.8517C266.767 12.5614 267.918 11.4783 269.284 10.6951C270.651 9.88687 272.217 9.46912 273.811 9.48221C275.283 9.48221 276.623 9.78216 277.855 10.3821C279.073 10.982 280.146 11.7782 281.041 12.7697C281.953 13.7874 282.663 14.9479 283.144 16.2001C283.653 17.5036 283.895 18.8343 283.895 20.2173C283.895 21.6789 283.666 23.0478 283.198 24.3524C282.729 25.6569 282.073 26.7913 281.216 27.7697C280.373 28.7481 279.328 29.5301 278.149 30.0908C276.971 30.6525 275.672 30.9263 274.266 30.9263V30.9263ZM249.626 28.8648C251.073 28.8648 252.399 28.6041 253.603 28.0696C254.808 27.5352 255.732 26.8436 256.362 25.9699C256.589 25.7485 256.777 25.4867 256.91 25.1999C257.031 24.9261 257.098 24.6654 257.098 24.4309V21.0518C256.175 20.7125 255.21 20.4388 254.219 20.2566C253.228 20.0734 252.21 19.9828 251.179 19.9828C249.225 19.9828 247.63 20.3733 246.412 21.1696C245.194 21.9647 244.578 23.0086 244.578 24.3131C244.578 24.9523 244.711 25.5391 244.966 26.0997C245.22 26.6473 245.582 27.1436 246.023 27.5472C246.466 27.9518 247.016 28.278 247.63 28.5256C248.26 28.7481 248.943 28.8648 249.626 28.8648V28.8648ZM248.97 30.9263C247.965 30.9263 247.028 30.7561 246.171 30.43C245.315 30.1039 244.564 29.6479 243.921 29.0611C243.292 28.4874 242.783 27.7828 242.435 27.0127C242.073 26.2175 241.899 25.3569 241.899 24.4963C241.899 23.5954 242.114 22.761 242.555 21.9909C242.998 21.2219 243.6 20.5566 244.39 20.009C245.18 19.4484 246.117 19.0175 247.203 18.7176C248.287 18.4176 249.491 18.2605 250.792 18.2605C251.876 18.2605 252.974 18.3522 254.098 18.5343C255.21 18.7176 256.201 18.9913 257.072 19.3306V17.4654C257.072 15.6384 256.536 14.191 255.478 13.1089C254.42 12.0389 252.947 11.5045 251.073 11.5045C249.988 11.5045 248.877 11.7128 247.724 12.1436C246.587 12.5734 245.421 13.1733 244.256 13.9695L243.279 12.1818C246.023 10.3821 248.689 9.48221 251.273 9.48221C253.938 9.48221 256.027 10.213 257.554 11.6604C259.081 13.122 259.844 15.1301 259.844 17.6999V27.0389C259.844 27.7828 260.178 28.1482 260.861 28.1482V30.5347C260.393 30.6132 260.045 30.6525 259.803 30.6525C259.094 30.6525 258.544 30.4824 258.157 30.13C257.768 29.7919 257.554 29.3087 257.527 28.6957L257.447 27.065C256.469 28.3172 255.237 29.2694 253.75 29.9217C252.264 30.574 250.684 30.9263 248.97 30.9263V30.9263ZM222.215 20.1257C222.215 18.6652 222.469 17.2952 222.991 15.9907C223.513 14.6862 224.236 13.5649 225.173 12.5865C226.124 11.6092 227.276 10.8391 228.535 10.3046C229.848 9.74399 231.28 9.46912 232.86 9.46912C234.869 9.46912 236.624 9.91305 238.123 10.7998C239.622 11.6866 240.748 12.8864 241.512 14.4004L238.82 15.2348C238.244 14.191 237.373 13.3304 236.316 12.7566C235.244 12.1567 234.052 11.8688 232.74 11.8688C231.655 11.8688 230.638 12.0782 229.7 12.5079C228.776 12.9257 227.946 13.5125 227.25 14.2302C226.553 14.961 226.018 15.8216 225.616 16.8393C225.227 17.8428 225.027 18.939 225.027 20.1388C225.027 21.2994 225.227 22.4086 225.643 23.4394C226.045 24.4691 226.607 25.3689 227.317 26.1259C228.012 26.8698 228.843 27.4828 229.78 27.9126C230.718 28.3565 231.722 28.5659 232.78 28.5659C233.463 28.5659 234.133 28.4743 234.802 28.291C235.458 28.1089 236.075 27.8471 236.663 27.521C237.213 27.209 237.709 26.8305 238.136 26.3866C238.539 25.9699 238.833 25.5129 238.993 25.0439L241.726 25.839C241.431 26.5829 240.989 27.2603 240.413 27.8864C239.838 28.5136 239.168 29.048 238.391 29.517C237.588 29.9872 236.73 30.3526 235.82 30.5871C234.882 30.8347 233.905 30.9656 232.9 30.9656C231.347 30.9656 229.928 30.6787 228.616 30.117C227.329 29.5694 226.191 28.7732 225.227 27.7697C224.276 26.7651 223.513 25.6045 223.004 24.3393C222.469 22.9955 222.215 21.5993 222.215 20.1257" fill="#9CA8A9"/>
</g>
<g opacity="0.899994">
<path opacity="0.899994" d="M323.707 1.52554H326.479V25.8394C326.479 26.6084 326.694 27.2083 327.135 27.6522C327.577 28.095 328.18 28.3045 328.969 28.3045C329.331 28.3045 329.679 28.2521 330.027 28.1867C330.416 28.1081 330.805 28.0034 331.166 27.8736L331.661 30.0649C331.139 30.2733 330.51 30.4434 329.76 30.5874C329.01 30.7172 328.367 30.7826 327.818 30.7826C326.532 30.7826 325.528 30.4303 324.805 29.7257C324.069 29.0211 323.707 28.0296 323.707 26.7654V1.52554ZM309.793 28.8651C311.24 28.8651 312.565 28.6044 313.77 28.0689C314.976 27.5344 315.9 26.8429 316.529 25.9692C316.77 25.7347 316.958 25.474 317.079 25.2002C317.199 24.9264 317.266 24.6646 317.266 24.4301V21.0521C316.342 20.7129 315.378 20.4391 314.387 20.2559C313.382 20.0737 312.364 19.9821 311.347 19.9821C309.391 19.9821 307.798 20.3737 306.579 21.1688C305.361 21.9651 304.745 23.0078 304.745 24.3123C304.745 24.9526 304.88 25.5394 305.134 26.1001C305.388 26.6476 305.75 27.1428 306.191 27.5475C306.633 27.9522 307.182 28.2783 307.798 28.5259C308.427 28.7473 309.11 28.8651 309.793 28.8651V28.8651ZM309.137 30.9255C308.133 30.9255 307.195 30.7565 306.339 30.4303C305.482 30.1042 304.732 29.6472 304.089 29.0604C302.79 27.8867 302.053 26.2168 302.067 24.4956C302.067 23.5957 302.282 22.7602 302.723 21.9912C303.165 21.2212 303.768 20.5558 304.557 20.0082C305.348 19.4476 306.285 19.0168 307.37 18.7168C308.454 18.4168 309.66 18.2609 310.958 18.2609C312.043 18.2609 313.141 18.3514 314.266 18.5347C315.378 18.7168 316.369 18.9906 317.239 19.3298V17.4646C317.239 15.6387 316.704 14.1913 315.646 13.1082C314.587 12.0393 313.115 11.5037 311.24 11.5037C310.155 11.5037 309.031 11.7131 307.892 12.1429C306.753 12.5737 305.588 13.1736 304.424 13.9688L303.446 12.1821C306.191 10.3824 308.856 9.48254 311.441 9.48254C314.106 9.48254 316.194 10.2123 317.721 11.6608C319.248 13.1213 320.011 15.1304 320.011 17.7002V27.0392C320.011 27.782 320.345 28.1474 321.029 28.1474V30.535C320.559 30.6125 320.212 30.6518 319.971 30.6518C319.261 30.6518 318.713 30.4827 318.323 30.1304C317.936 29.7912 317.721 29.309 317.694 28.695L317.614 27.0654C316.65 28.3045 315.378 29.2829 313.918 29.921C312.445 30.5994 310.852 30.9255 309.137 30.9255" fill="#9CA8A9"/>
</g>
</g>
</svg>
